TREASURES OF THE SAVAGE FRONTIER
ITEM LIST

This list was created from the game's DAX-files (ITEMx.DAX and MONxITM.DAX) by decoding the RLE (run-length encoding) of 
the files with DaxDump (a tool made by Simeon Pilgrim) and then processing and sorting the data.

Most Gold Box games have a item record size of 63 bytes which of 17 bytes are copied to this list. Null bytes are marked with
a "-" for easier reading.

Each item has a pointer to a record in ITEMS file which hold the item's combat properties (damage, protective value, etc.).
This data (16 bytes) is shown after the item record. For some reason, Gateway to the Savage Frontier has ITEMS record size 
of 24 bytes but the sequel has the standard 16 bytes. The ITEMS records are fully listed after the first listing.


Check the file "Info.txt" for more in-depth description of the fields.


For more Gold Box - games stuff:
http://personal.inet.fi/koti/jhirvonen/gbc/



                                    [================ DAX-FILE RECORDS ================]         [========== PROPERTIES IN ITEMS-FILE ==========]

                                      unidentified name bits (00 = identified)
                                                          |                   special properties    damage vs large          damage vs small/medium
                                                          | cursed            spells in scrolls     x d x + x    protective  x d x + x
                                                  readied |  |                 |                        |        value   mel |
                                                       |  |  | weight   value  |                        |           |    type|          class restrictions
                                            save bonus |  |  |  |        |     |         hands required |           | wpn |  |           |
                                      name          |  |  |  |  | amount |     |                     |  |   rate of | type|  |           | missile type
                                        |     bonus |  |  |  |  |     |  |     |                slot |  |      fire |  |  |  |     range |  |
                              base type |_____   |  |  |  |  |  |__   |  |__   |_____             |  |  |_____   |  |  |  |  |_____   |  |  | unused
                                     |  |  |  |  |  |  |  |  |  |  |  |  |  |  |  |  |            |  |  |  |  |  |  |  |  |  |  |  |  |  |  |  |
                                     00 01 02 03 04 05 06 07 08 09 0A 0B 0C 0D 0E 0F 10           00 01 02 03 04 05 06 07 08 09 0A 0B 0C 0D 0E 0F 

Arrow (10)                           1E -  -  1E -  -  01 -  -  02 -  0A -  -  -  -  -            0A -  01 06 -  02 -  01 -  01 06 -  16 EC 12 -  
Arrow (20)                           1E -  -  1E -  -  -  -  -  02 -  14 -  -  -  -  -            0A -  01 06 -  02 -  01 -  01 06 -  16 EC 12 -  
Arrow (20)                           1E -  -  1E -  -  01 -  -  02 -  14 -  -  -  -  -            0A -  01 06 -  02 -  01 -  01 06 -  16 EC 12 -  
Arrow (20)                           1E -  -  1E -  -  01 -  -  02 -  14 -  -  -  -  -            0A -  01 06 -  02 -  01 -  01 06 -  16 EC 12 -  
Arrow (20)                           1E -  -  1E -  -  01 -  -  02 -  14 -  -  -  -  -            0A -  01 06 -  02 -  01 -  01 06 -  16 EC 12 -  
Arrow (20)                           1E -  -  1E -  -  01 -  -  02 -  14 -  -  -  -  -            0A -  01 06 -  02 -  01 -  01 06 -  16 EC 12 -  
Arrow (20)                           1E -  -  1E -  -  01 -  -  02 -  14 -  -  -  -  -            0A -  01 06 -  02 -  01 -  01 06 -  16 EC 12 -  
Arrow (20)                           1E -  -  1E -  -  01 -  -  02 -  14 -  -  -  -  -            0A -  01 06 -  02 -  01 -  01 06 -  16 EC 12 -  
Arrow +1 (10)                        1E -  6F 1E 01 -  -  06 -  02 -  0A 03 -  -  -  -            0A -  01 06 -  02 -  01 -  01 06 -  16 EC 12 -  
Arrow +1 (7)                         1E -  6F 1E 01 -  01 06 -  02 -  07 03 -  -  -  -            0A -  01 06 -  02 -  01 -  01 06 -  16 EC 12 -  
Arrow +2 (10)                        1E -  70 1E 02 -  -  06 -  02 -  0A 06 -  -  -  -            0A -  01 06 -  02 -  01 -  01 06 -  16 EC 12 -  
Arrow +3 (10)                        1E -  71 1E 03 -  -  06 -  02 -  0A 09 -  -  -  -            0A -  01 06 -  02 -  01 -  01 06 -  16 EC 12 -  
Authentic Kraken Shield              25 25 AA 91 -  -  -  -  -  64 -  -  09 -  -  -  -            01 01 -  -  -  -  81 -  -  -  -  -  -  FE -  -  
Awl Pike                             0B -  -  0B -  -  -  -  -  50 -  -  01 -  -  -  -            -  02 01 0C -  -  -  01 -  01 06 01 -  E8 04 -  
Banded Mail                          23 -  2F 23 -  -  -  -  -  5E 01 -  12 -  -  -  -            02 -  -  -  -  -  B8 -  80 -  -  -  -  DA -  -  
Banded Mail                          23 -  2F 23 -  -  01 -  -  5E 01 -  12 -  -  -  -            02 -  -  -  -  -  B8 -  80 -  -  -  -  DA -  -  
Banded Mail                          23 -  2F 23 -  -  01 -  -  5E 01 -  12 -  -  -  -            02 -  -  -  -  -  B8 -  80 -  -  -  -  DA -  -  
Banded Mail                          23 -  2F 23 -  -  01 -  -  5E 01 -  12 -  -  -  -            02 -  -  -  -  -  B8 -  80 -  -  -  -  DA -  -  
Banded Mail +1                       23 6F 2F 23 01 -  -  04 -  5E 01 -  84 03 -  -  -            02 -  -  -  -  -  B8 -  80 -  -  -  -  DA -  -  
Banded Mail +1                       23 6F 2F 23 01 -  01 04 -  5E 01 -  84 03 -  -  -            02 -  -  -  -  -  B8 -  80 -  -  -  -  DA -  -  
Banded Mail +1                       23 6F 2F 23 01 -  01 04 -  5E 01 -  84 03 -  -  -            02 -  -  -  -  -  B8 -  80 -  -  -  -  DA -  -  
Banded Mail +2                       23 70 2F 23 02 -  -  04 -  5E 01 -  08 07 -  -  -            02 -  -  -  -  -  B8 -  80 -  -  -  -  DA -  -  
Banded Mail +3                       23 71 2F 23 03 -  -  04 -  5E 01 -  F0 0A -  -  -            02 -  -  -  -  -  B8 -  80 -  -  -  -  DA -  -  
Bastard Sword                        10 -  -  10 -  -  -  -  -  64 -  -  05 -  -  -  -            -  02 02 08 -  -  -  01 -  02 04 -  -  E8 04 -  
Battle Axe                           01 -  -  01 -  -  -  -  -  4B -  -  01 -  -  -  -            -  02 01 08 -  01 -  01 -  01 08 -  -  E8 04 -  
Battle Axe                           01 -  -  01 -  -  01 -  -  4B -  -  01 -  -  -  -            -  02 01 08 -  01 -  01 -  01 08 -  -  E8 04 -  
Battle Axe                           01 -  -  01 -  -  01 -  -  4B -  -  01 -  -  -  -            -  02 01 08 -  01 -  01 -  01 08 -  -  E8 04 -  
Battle Axe +1                        01 -  6F 01 01 -  -  06 -  4B -  -  F4 01 -  -  -            -  02 01 08 -  01 -  01 -  01 08 -  -  E8 04 -  
Battle Axe +1                        01 -  6F 01 01 -  01 06 -  4B -  -  F4 01 -  -  -            -  02 01 08 -  01 -  01 -  01 08 -  -  E8 04 -  
Battle Axe +2                        01 -  70 01 02 -  -  06 -  4B -  -  E8 03 -  -  -            -  02 01 08 -  01 -  01 -  01 08 -  -  E8 04 -  
Battle Axe +2                        01 -  70 01 02 -  01 06 -  4B -  -  E8 03 -  -  -            -  02 01 08 -  01 -  01 -  01 08 -  -  E8 04 -  
Battle Axe +2                        01 -  70 01 02 -  01 06 -  4B -  -  E8 03 -  -  -            -  02 01 08 -  01 -  01 -  01 08 -  -  E8 04 -  
Battle Axe +2                        01 -  70 01 02 -  01 06 -  4B -  -  E8 03 -  -  -            -  02 01 08 -  01 -  01 -  01 08 -  -  E8 04 -  
Battle Axe +3                        01 -  71 01 03 -  -  06 -  4B -  -  08 07 -  -  -            -  02 01 08 -  01 -  01 -  01 08 -  -  E8 04 -  
Battle Axe +3                        01 -  71 01 03 -  01 06 -  4B -  -  08 07 -  -  -            -  02 01 08 -  01 -  01 -  01 08 -  -  E8 04 -  
Battle-used Kraken Helm              29 29 AA 92 -  -  -  -  -  64 -  -  09 -  -  -  -            04 -  -  -  -  -  80 -  -  -  -  -  -  FE -  -  
Belt                                 2A -  -  2A -  -  -  -  -  03 -  -  01 -  -  -  -            05 -  -  -  -  -  -  -  -  -  -  -  -  FF -  -  
Belt                                 2A -  -  2A -  -  -  06 -  03 -  -  70 17 -  -  -            05 -  -  -  -  -  -  -  -  -  -  -  -  FF -  -  
Belt                                 2A -  -  2A -  -  01 -  -  03 -  -  01 -  -  -  -            05 -  -  -  -  -  -  -  -  -  -  -  -  FF -  -  
Belt                                 2A -  -  2A -  -  01 -  -  03 -  -  01 -  -  -  -            05 -  -  -  -  -  -  -  -  -  -  -  -  FF -  -  
Belt Of Prot. +1                     4D 6F 31 2A 01 01 -  06 -  03 -  -  D0 07 -  -  -            05 -  -  -  -  -  80 -  -  -  -  -  -  FF -  -  
Belt Of Prot. +2                     4D 70 31 2A 02 02 -  06 -  03 -  -  A0 0F -  -  -            05 -  -  -  -  -  80 -  -  -  -  -  -  FF -  -  
Black Crystal Ring                   2E -  2E 96 -  -  -  -  -  01 -  -  64 -  -  -  -            09 -  -  -  -  -  -  -  -  -  -  -  -  FF -  -  
Blessed Bolt (2)                     4A -  0C 4C 01 -  -  05 -  01 -  02 F4 01 -  -  -            0A -  01 04 -  01 -  01 -  01 04 -  13 E8 12 -  
Bolt (20)                            0C -  -  0C -  -  -  -  -  01 -  14 -  -  -  -  -            0A -  01 04 -  01 -  01 80 01 04 -  -  E8 12 -  
Bolt +1 (10)                         0C -  6F 0C 01 -  -  06 -  01 -  0A 03 -  -  -  -            0A -  01 04 -  01 -  01 80 01 04 -  -  E8 12 -  
Bolt +2 (10)                         0C -  70 0C 02 -  -  06 -  01 -  0A 06 -  -  -  -            0A -  01 04 -  01 -  01 80 01 04 -  -  E8 12 -  
Bolt +3 (10)                         0C -  71 0C 03 -  -  06 -  01 -  0A 09 -  -  -  -            0A -  01 04 -  01 -  01 80 01 04 -  -  E8 12 -  
Boots                                2D -  -  2D -  -  -  -  -  3C -  -  01 -  -  -  -            08 -  -  -  -  -  80 -  -  -  -  -  -  FF -  -  
Boots                                2D -  -  2D -  -  01 -  -  3C -  -  01 -  -  -  -            08 -  -  -  -  -  80 -  -  -  -  -  -  FF -  -  
Boots                                2D -  -  2D -  -  01 -  -  3C -  -  01 -  -  -  -            08 -  -  -  -  -  80 -  -  -  -  -  -  FF -  -  
Boots                                2D -  -  2D -  -  01 -  -  3C -  -  01 -  -  -  -            08 -  -  -  -  -  80 -  -  -  -  -  -  FF -  -  
Boots                                2D -  -  2D -  -  01 -  -  3C -  -  01 -  -  -  -            08 -  -  -  -  -  80 -  -  -  -  -  -  FF -  -  
Boots                                2D -  -  2D -  -  01 -  -  3C -  -  01 -  -  -  -            08 -  -  -  -  -  80 -  -  -  -  -  -  FF -  -  
Boots                                2D -  -  2D -  -  01 -  -  3C -  -  01 -  -  -  -            08 -  -  -  -  -  80 -  -  -  -  -  -  FF -  -  
Boots                                2D -  -  2D -  -  01 -  -  3C -  -  01 -  -  -  -            08 -  -  -  -  -  80 -  -  -  -  -  -  FF -  -  
Boots of Speed                       2D 5C 5A 2D 02 -  -  06 -  3C -  -  A0 0F -  4A 80           08 -  -  -  -  -  80 -  -  -  -  -  -  FF -  -  
Bracers AC 2                         32 -  6E 32 08 -  -  06 -  64 -  -  C0 12 -  -  -            0A -  -  -  -  -  B2 -  -  -  -  -  -  FF -  -  
Bracers AC 2                         32 -  6E 32 08 -  01 06 -  64 -  -  C0 12 -  -  -            0A -  -  -  -  -  B2 -  -  -  -  -  -  FF -  -  
Bracers AC 4                         32 -  6C 32 06 -  -  06 -  64 -  -  10 0E -  -  -            0A -  -  -  -  -  B2 -  -  -  -  -  -  FF -  -  
Bracers AC 4                         32 -  6C 32 06 -  01 06 -  64 -  -  10 0E -  -  -            0A -  -  -  -  -  B2 -  -  -  -  -  -  FF -  -  
Bracers AC 6                         32 -  6B 32 04 -  -  06 -  64 -  -  60 09 -  -  -            0A -  -  -  -  -  B2 -  -  -  -  -  -  FF -  -  
Bracers AC 6                         32 -  6B 32 04 -  01 06 -  64 -  -  60 09 -  -  -            0A -  -  -  -  -  B2 -  -  -  -  -  -  FF -  -  
Bracers AC 6                         32 -  6B 32 04 -  01 06 -  64 -  -  60 09 -  -  -            0A -  -  -  -  -  B2 -  -  -  -  -  -  FF -  -  
Bracers AC 6                         32 -  6B 32 04 -  01 06 -  64 -  -  60 09 -  -  -            0A -  -  -  -  -  B2 -  -  -  -  -  -  FF -  -  
Broad Sword                          11 -  -  11 -  -  -  -  -  4B -  -  02 -  -  -  -            -  01 01 06 01 -  -  01 -  02 04 -  -  EC 04 -  
Broad Sword                          11 -  -  11 -  -  -  -  -  4B -  -  02 -  -  -  -            -  01 01 06 01 -  -  01 -  02 04 -  -  EC 04 -  
Certificate of Normalcy              2F B2 5A 97 -  -  -  -  -  0A -  -  -  -  -  -  -            0A -  -  -  -  -  -  -  -  -  -  -  -  FF -  -  
Chain Mail                           22 -  2F 22 -  -  -  -  -  2C 01 -  0F -  -  -  -            02 -  -  -  -  -  B7 -  80 -  06 -  -  FA -  -  
Chain Mail                           22 -  2F 22 -  -  01 -  -  2C 01 -  0F -  -  -  -            02 -  -  -  -  -  B7 -  80 -  06 -  -  FA -  -  
Chain Mail                           22 -  2F 22 -  -  01 -  -  2C 01 -  0F -  -  -  -            02 -  -  -  -  -  B7 -  80 -  06 -  -  FA -  -  
Chain Mail                           22 -  2F 22 -  -  01 -  -  2C 01 -  0F -  -  -  -            02 -  -  -  -  -  B7 -  80 -  06 -  -  FA -  -  
Chain Mail                           22 -  2F 22 -  -  01 -  -  2C 01 -  0F -  -  -  -            02 -  -  -  -  -  B7 -  80 -  06 -  -  FA -  -  
Chain Mail +1                        22 6F 2F 22 01 -  -  04 -  2C 01 -  BC 02 -  -  -            02 -  -  -  -  -  B7 -  80 -  06 -  -  FA -  -  
Chain Mail +1                        22 6F 2F 22 01 -  01 04 -  2C 01 -  BC 02 -  -  -            02 -  -  -  -  -  B7 -  80 -  06 -  -  FA -  -  
Chain Mail +1                        22 6F 2F 22 01 -  01 04 -  2C 01 -  BC 02 -  -  -            02 -  -  -  -  -  B7 -  80 -  06 -  -  FA -  -  
Chain Mail +1                        22 6F 2F 22 01 -  01 04 -  2C 01 -  BC 02 -  -  -            02 -  -  -  -  -  B7 -  80 -  06 -  -  FA -  -  
Chain Mail +2                        22 70 2F 22 02 -  -  04 -  2C 01 -  DC 05 -  -  -            02 -  -  -  -  -  B7 -  80 -  06 -  -  FA -  -  
Chain Mail +2                        22 70 2F 22 02 -  01 04 -  2C 01 -  DC 05 -  -  -            02 -  -  -  -  -  B7 -  80 -  06 -  -  FA -  -  
Chain Mail +2                        22 70 2F 22 02 -  01 04 -  2C 01 -  DC 05 -  -  -            02 -  -  -  -  -  B7 -  80 -  06 -  -  FA -  -  
Chain Mail +2                        22 70 2F 22 02 -  01 04 -  2C 01 -  DC 05 -  -  -            02 -  -  -  -  -  B7 -  80 -  06 -  -  FA -  -  
Chain Mail +3                        22 71 2F 22 03 -  -  04 -  2C 01 -  C4 09 -  -  -            02 -  -  -  -  -  B7 -  80 -  06 -  -  FA -  -  
Cleric Scroll 2 Spells               28 65 27 26 01 -  -  04 -  19 -  -  2C 01 43 08 -            0C -  -  -  -  -  -  -  -  -  -  -  -  92 -  -  
Cleric Scroll 2 Spells               28 65 27 26 01 -  -  04 -  19 -  -  58 02 4B 47 -            0C -  -  -  -  -  -  -  -  -  -  -  -  92 -  -  
Cleric Scroll 2 Spells               28 65 27 26 01 -  -  04 -  19 -  -  94 02 38 48 -            0C -  -  -  -  -  -  -  -  -  -  -  -  92 -  -  
Cleric Scroll 2 Spells               28 65 27 26 01 -  -  04 -  19 -  -  D0 02 24 24 -            0C -  -  -  -  -  -  -  -  -  -  -  -  92 -  -  
Cleric Scroll 3 Spells               28 66 27 26 01 -  -  -  -  19 -  -  EC 04 66 69 66           0C -  -  -  -  -  -  -  -  -  -  -  -  92 -  -  
Cleric Scroll 3 Spells               28 66 27 26 01 -  -  -  -  19 -  -  EC 04 68 67 65           0C -  -  -  -  -  -  -  -  -  -  -  -  92 -  -  
Cleric Scroll 3 Spells               28 66 27 26 01 -  01 -  -  19 -  -  EC 04 66 69 66           0C -  -  -  -  -  -  -  -  -  -  -  -  92 -  -  
Cloak                                2C -  -  2C -  -  -  -  -  19 -  -  01 -  -  -  -            07 -  -  -  -  -  80 -  -  -  -  -  -  FF -  -  
Cloak                                2C -  -  2C -  -  01 -  -  19 -  -  01 -  -  -  -            07 -  -  -  -  -  80 -  -  -  -  -  -  FF -  -  
Cloak                                2C -  -  2C -  -  01 -  -  19 -  -  01 -  -  -  -            07 -  -  -  -  -  80 -  -  -  -  -  -  FF -  -  
Cloak                                2C -  -  2C -  -  01 -  -  19 -  -  01 -  -  -  -            07 -  -  -  -  -  80 -  -  -  -  -  -  FF -  -  
Cloak                                2C -  -  2C -  -  01 -  -  19 -  -  01 -  -  -  -            07 -  -  -  -  -  80 -  -  -  -  -  -  FF -  -  
Cloak of Displacement                3A 3A 5A 2C 02 -  -  06 -  19 -  -  AC 0D -  59 80           07 -  -  -  -  -  80 -  -  -  -  -  -  FF -  -  
Cloak Of Prot. +1                    4B 6F 31 2C 01 01 -  06 -  19 -  -  D0 07 -  -  -            07 -  -  -  -  -  80 -  -  -  -  -  -  FF -  -  
Cloak Of Prot. +1                    4B 6F 31 2C 01 01 01 06 -  19 -  -  D0 07 -  -  -            07 -  -  -  -  -  80 -  -  -  -  -  -  FF -  -  
Cloak Of Prot. +2                    4B 70 31 2C 02 02 -  06 -  19 -  -  A0 0F -  -  -            07 -  -  -  -  -  80 -  -  -  -  -  -  FF -  -  
Cloak Of Prot. +2                    4B 70 31 2C 02 02 01 06 -  19 -  -  A0 0F -  -  -            07 -  -  -  -  -  80 -  -  -  -  -  -  FF -  -  
Cloak Of Prot. +2                    4B 70 31 2C 02 02 01 06 -  19 -  -  A0 0F -  -  -            07 -  -  -  -  -  80 -  -  -  -  -  -  FF -  -  
Cloak Of Prot. +3                    4B 71 31 2C 03 03 -  06 -  19 -  -  70 17 -  -  -            07 -  -  -  -  -  80 -  -  -  -  -  -  FF -  -  
Club.                                03 -  -  03 -  -  -  -  -  1E -  -  01 -  -  -  -            -  01 01 03 -  01 -  80 -  01 06 -  03 FE 14 -  
Composite Long Bow                   16 -  -  16 -  -  -  -  -  32 -  -  19 -  -  -  -            -  02 01 06 -  04 -  01 80 01 06 -  16 E8 0B -  
Composite Long Bow                   16 -  -  16 -  -  01 -  -  32 -  -  19 -  -  -  -            -  02 01 06 -  04 -  01 80 01 06 -  16 E8 0B -  
Composite Long Bow +1                16 -  6F 16 01 -  -  06 -  32 -  -  20 03 -  -  -            -  02 01 06 -  04 -  01 80 01 06 -  16 E8 0B -  
Composite Long Bow +1                16 -  6F 16 01 -  01 06 -  32 -  -  20 03 -  -  -            -  02 01 06 -  04 -  01 80 01 06 -  16 E8 0B -  
Composite Long Bow +2                16 -  70 16 02 -  -  06 -  32 -  -  08 07 -  -  -            -  02 01 06 -  04 -  01 80 01 06 -  16 E8 0B -  
Composite Long Bow +2                16 -  70 16 02 -  01 06 -  32 -  -  08 07 -  -  -            -  02 01 06 -  04 -  01 80 01 06 -  16 E8 0B -  
Composite Long Bow +2                16 -  70 16 02 -  01 06 -  32 -  -  08 07 -  -  -            -  02 01 06 -  04 -  01 80 01 06 -  16 E8 0B -  
Composite Long Bow +3                16 -  71 16 03 -  -  06 -  32 -  -  B8 0B -  -  -            -  02 01 06 -  04 -  01 80 01 06 -  16 E8 0B -  
Composite Short Bow                  17 -  -  17 -  -  -  -  -  50 -  -  0F -  -  -  -            -  02 01 06 -  04 -  01 80 01 06 -  13 E8 0B -  
Composite Short Bow +1               17 -  6F 17 01 -  -  06 -  50 -  -  BC 02 -  -  -            -  02 01 06 -  04 -  01 80 01 06 -  13 E8 0B -  
Composite Short Bow +1               17 -  6F 17 01 -  01 06 -  50 -  -  BC 02 -  -  -            -  02 01 06 -  04 -  01 80 01 06 -  13 E8 0B -  
Composite Short Bow +2               17 -  70 17 02 -  -  06 -  50 -  -  DC 05 -  -  -            -  02 01 06 -  04 -  01 80 01 06 -  13 E8 0B -  
Composite Short Bow +3               17 -  71 17 03 -  -  06 -  50 -  -  C4 09 -  -  -            -  02 01 06 -  04 -  01 80 01 06 -  13 E8 0B -  
Dagger                               04 -  -  04 -  -  -  -  -  0A -  -  01 -  -  -  -            -  01 01 03 -  01 -  01 -  01 04 -  04 FD 14 -  
Dagger                               04 -  -  04 -  -  -  -  -  0A -  -  01 -  -  -  -            -  01 01 03 -  01 -  01 -  01 04 -  04 FD 14 -  
Dagger                               04 -  -  04 -  -  -  -  -  0A -  -  01 -  -  -  -            -  01 01 03 -  01 -  01 -  01 04 -  04 FD 14 -  
Dagger +1                            04 -  6F 04 01 -  -  06 -  0A -  -  64 -  -  -  -            -  01 01 03 -  01 -  01 -  01 04 -  04 FD 14 -  
Dagger +2                            04 -  70 04 02 -  -  06 -  0A -  -  2C 01 -  -  -            -  01 01 03 -  01 -  01 -  01 04 -  04 FD 14 -  
Dagger +2                            04 -  70 04 02 -  -  06 -  0A -  -  2C 01 -  -  -            -  01 01 03 -  01 -  01 -  01 04 -  04 FD 14 -  
Dagger +2                            04 -  70 04 02 -  -  06 -  0A -  -  2C 01 -  -  -            -  01 01 03 -  01 -  01 -  01 04 -  04 FD 14 -  
Dagger +2                            04 -  70 04 02 -  -  06 -  0A -  -  2C 01 -  -  -            -  01 01 03 -  01 -  01 -  01 04 -  04 FD 14 -  
Dagger +3                            04 -  71 04 03 -  -  06 -  0A -  -  F4 01 -  -  -            -  01 01 03 -  01 -  01 -  01 04 -  04 FD 14 -  
Dart (10)                            05 -  -  05 -  -  -  -  -  05 -  0A -  -  -  -  -            -  01 01 02 -  06 -  01 80 01 03 -  05 FD 1A -  
Dart (10)                            05 -  -  05 -  -  01 -  -  05 -  0A -  -  -  -  -            -  01 01 02 -  06 -  01 80 01 03 -  05 FD 1A -  
Dart (10)                            05 -  -  05 -  -  01 -  -  05 -  0A -  -  -  -  -            -  01 01 02 -  06 -  01 80 01 03 -  05 FD 1A -  
Dart (10)                            05 -  -  05 -  -  01 -  -  05 -  0A -  -  -  -  -            -  01 01 02 -  06 -  01 80 01 03 -  05 FD 1A -  
Dart (10)                            05 -  -  05 -  -  01 -  -  05 -  0A -  -  -  -  -            -  01 01 02 -  06 -  01 80 01 03 -  05 FD 1A -  
Dart +1 (10)                         05 -  6F 05 01 -  -  06 -  05 -  0A 0A -  -  -  -            -  01 01 02 -  06 -  01 80 01 03 -  05 FD 1A -  
Dart +1 (10)                         05 -  6F 05 01 -  01 06 -  05 -  0A 0A -  -  -  -            -  01 01 02 -  06 -  01 80 01 03 -  05 FD 1A -  
Dart +1 (10)                         05 -  6F 05 01 -  01 06 -  05 -  0A 0A -  -  -  -            -  01 01 02 -  06 -  01 80 01 03 -  05 FD 1A -  
Dart +1 (10)                         05 -  6F 05 01 -  01 06 -  05 -  0A 0A -  -  -  -            -  01 01 02 -  06 -  01 80 01 03 -  05 FD 1A -  
Dart +2 (10)                         05 -  70 05 02 -  -  06 -  05 -  0A 19 -  -  -  -            -  01 01 02 -  06 -  01 80 01 03 -  05 FD 1A -  
Dart +3 (10)                         05 -  71 05 03 -  -  06 -  05 -  0A 78 -  -  -  -            -  01 01 02 -  06 -  01 80 01 03 -  05 FD 1A -  
Dart of Hornet's Nest                42 42 5A 05 01 -  -  06 -  05 -  -  DC 05 -  -  -            -  01 01 02 -  14 -  01 -  01 03 -  04 ED 1A -  
Drow Chain +1                        3E 6F 22 3C 01 -  -  04 -  96 -  -  -  -  -  -  -            02 -  -  -  -  -  B7 -  -  -  -  -  -  FE -  -  
Drow Chain +3                        3E 71 22 3C 03 -  -  04 -  96 -  -  -  -  -  -  -            02 -  -  -  -  -  B7 -  -  -  -  -  -  FE -  -  
Drow Chain +4                        3E 72 22 3C 04 -  -  04 -  96 -  -  -  -  -  -  -            02 -  -  -  -  -  B7 -  -  -  -  -  -  FE -  -  
Drow Long Sword +1                   3F 6F 12 3C 01 -  -  04 -  3C -  -  -  -  -  -  -            -  01 01 0C -  -  -  01 -  01 08 -  -  EC 04 -  
Drow Long Sword +3                   3F 71 12 3C 03 -  -  04 -  3C -  -  -  -  -  -  -            -  01 01 0C -  -  -  01 -  01 08 -  -  EC 04 -  
Drow Long Sword +4                   3F 72 12 3C 04 -  -  04 -  3C -  -  -  -  -  -  -            -  01 01 0C -  -  -  01 -  01 08 -  -  EC 04 -  
Elfin Chain                          3D -  -  3D -  -  -  -  -  96 -  -  32 -  -  -  -            02 -  -  -  -  -  B7 -  -  -  -  -  -  FE -  -  
Elfin Chain +1                       3D -  6F 3D 01 -  -  06 -  96 -  -  DC 05 -  -  -            02 -  -  -  -  -  B7 -  -  -  -  -  -  FE -  -  
Elfin Chain +2                       3D -  70 3D 02 -  -  06 -  96 -  -  C4 09 -  -  -            02 -  -  -  -  -  B7 -  -  -  -  -  -  FE -  -  
Elfin Chain +3                       3D -  71 3D 03 -  -  06 -  96 -  -  A0 0F -  -  -            02 -  -  -  -  -  B7 -  -  -  -  -  -  FE -  -  
Elixir of Youth                      2F 36 5A 34 01 -  -  -  -  14 -  -  D0 07 01 3F -            0A -  -  -  -  -  -  -  -  -  -  -  -  FF -  -  
Eyes of Charming                     2F 60 5A 3B 01 -  -  -  -  14 -  -  C0 12 -  0A -            0A -  -  -  -  -  -  -  -  -  -  -  -  FF -  -  
Farms of Longsaddle                  2F 8C 5A B3 -  -  -  -  -  19 -  -  40 -  -  3E 10           0A -  -  -  -  -  -  -  -  -  -  -  -  FF -  -  
Farrberjik                           2F -  -  94 -  -  -  06 -  3C -  -  8E 01 -  -  -            0A -  -  -  -  -  -  -  -  -  -  -  -  FF -  -  
Farrberjik Lined Boots               2D 2D A7 94 01 -  -  -  -  3C -  -  AF 0D -  A0 0F           08 -  -  -  -  -  80 -  -  -  -  -  -  FF -  -  
Farrberjik Lined Robe                2B 2B A7 94 -  -  -  -  -  19 -  -  20 03 -  -  -            06 -  -  -  -  -  -  -  -  -  -  -  -  FF -  -  
Fine Long Bow                        1A -  18 1A -  -  -  -  -  64 -  -  88 13 -  -  -            -  02 01 06 -  04 -  01 80 01 06 -  16 E8 0F -  
Fine Long Bow +2                     1A 70 18 1A 02 -  -  04 -  64 -  -  40 1F -  -  -            -  02 01 06 -  04 -  01 80 01 06 -  16 E8 0F -  
Firedock Map                         2F -  A2 AD -  -  -  04 -  19 -  -  32 -  -  3A 10           0A -  -  -  -  -  -  -  -  -  -  -  -  FF -  -  
Firepot                              57 -  -  A8 -  -  -  06 -  14 -  -  -  -  -  -  -            -  01 02 06 -  02 -  -  80 02 06 -  04 FF 1A -  
Flail                                46 -  -  46 -  -  -  -  -  96 -  -  01 -  -  -  -            -  01 02 04 -  -  -  80 -  01 06 01 -  FA 04 -  
Flail +1                             46 -  6F 46 01 -  -  06 -  96 -  -  20 03 -  -  -            -  01 02 04 -  -  -  80 -  01 06 01 -  FA 04 -  
Flail +1                             46 -  6F 46 01 -  01 06 -  96 -  -  20 03 -  -  -            -  01 02 04 -  -  -  80 -  01 06 01 -  FA 04 -  
Flail +2                             46 -  70 46 02 -  -  06 -  96 -  -  08 07 -  -  -            -  01 02 04 -  -  -  80 -  01 06 01 -  FA 04 -  
Flail +3                             46 -  71 46 03 -  -  06 -  96 -  -  40 06 -  -  -            -  01 02 04 -  -  -  80 -  01 06 01 -  FA 04 -  
Flail +3                             46 -  71 46 03 -  01 06 -  96 -  -  40 06 -  -  -            -  01 02 04 -  -  -  80 -  01 06 01 -  FA 04 -  
Flask of Oil                         57 AF 5A A9 -  -  -  -  -  14 -  -  01 -  -  -  -            -  01 02 06 -  02 -  -  80 02 06 -  04 FF 1A -  
Furry Farrberjik                     2F -  94 95 -  -  -  04 -  28 -  -  F8 03 -  -  -            0A -  -  -  -  -  -  -  -  -  -  -  -  FF -  -  
Girdle of Giant Strength             2A 50 5A 4F 01 -  -  06 -  3C -  -  F4 01 -  05 85           05 -  -  -  -  -  -  -  -  -  -  -  -  FF -  -  
Golden Battle Axe +3                 01 71 01 98 03 -  -  04 -  4B -  -  9E 07 -  -  -            -  02 01 08 -  01 -  01 -  01 08 -  -  E8 04 -  
Halberd                              47 -  -  47 -  -  -  -  -  AF -  -  02 -  -  -  -            -  02 02 04 -  -  -  80 -  01 06 01 -  FF 04 -  
Halberd                              47 -  -  47 -  -  01 -  -  AF -  -  02 -  -  -  -            -  02 02 04 -  -  -  80 -  01 06 01 -  FF 04 -  
Hammer                               06 -  -  06 -  -  -  -  -  32 -  -  01 -  -  -  -            -  01 01 04 -  01 -  80 -  01 04 01 05 FE 14 -  
Hammer                               06 -  -  06 -  -  01 -  -  32 -  -  01 -  -  -  -            -  01 01 04 -  01 -  80 -  01 04 01 05 FE 14 -  
Hammer +1                            06 -  6F 06 01 -  -  06 -  32 -  -  F4 01 -  -  -            -  01 01 04 -  01 -  80 -  01 04 01 05 FE 14 -  
Hammer +1                            06 -  6F 06 01 -  -  06 -  32 -  -  F4 01 -  -  -            -  01 01 04 -  01 -  80 -  01 04 01 05 FE 14 -  
Hammer +2                            06 -  70 06 02 -  -  06 -  32 -  -  B0 04 -  -  -            -  01 01 04 -  01 -  80 -  01 04 01 05 FE 14 -  
Hammer +3                            06 -  71 06 03 -  -  06 -  32 -  -  40 06 -  -  -            -  01 01 04 -  01 -  80 -  01 04 01 05 FE 14 -  
Hand Axe                             02 -  -  02 -  -  -  -  -  32 -  -  01 -  -  -  -            -  01 01 04 -  01 -  01 -  01 06 -  01 E8 14 -  
Helm                                 29 -  -  29 -  -  -  -  -  64 -  -  03 -  -  -  -            04 -  -  -  -  -  80 -  -  -  -  -  -  FE -  -  
Helm                                 29 -  -  29 -  -  01 -  -  64 -  -  03 -  -  -  -            04 -  -  -  -  -  80 -  -  -  -  -  -  FE -  -  
Helm                                 29 -  -  29 -  -  01 -  -  64 -  -  03 -  -  -  -            04 -  -  -  -  -  80 -  -  -  -  -  -  FE -  -  
Helm                                 29 -  -  29 -  -  01 -  -  64 -  -  03 -  -  -  -            04 -  -  -  -  -  80 -  -  -  -  -  -  FE -  -  
Helm                                 29 -  -  29 -  -  01 -  -  64 -  -  03 -  -  -  -            04 -  -  -  -  -  80 -  -  -  -  -  -  FE -  -  
Helm                                 29 -  -  29 -  -  01 -  -  64 -  -  03 -  -  -  -            04 -  -  -  -  -  80 -  -  -  -  -  -  FE -  -  
Helm                                 29 -  -  29 -  -  01 -  -  64 -  -  03 -  -  -  -            04 -  -  -  -  -  80 -  -  -  -  -  -  FE -  -  
Helm +1                              29 -  6F 29 01 -  -  06 -  64 -  -  F4 01 -  -  -            04 -  -  -  -  -  80 -  -  -  -  -  -  FE -  -  
Helm +1                              29 -  6F 29 01 -  01 06 -  64 -  -  F4 01 -  -  -            04 -  -  -  -  -  80 -  -  -  -  -  -  FE -  -  
Helm +1                              29 -  6F 29 01 -  01 06 -  64 -  -  F4 01 -  -  -            04 -  -  -  -  -  80 -  -  -  -  -  -  FE -  -  
Helm +1                              29 -  6F 29 01 -  01 06 -  64 -  -  F4 01 -  -  -            04 -  -  -  -  -  80 -  -  -  -  -  -  FE -  -  
Helm +1                              29 -  6F 29 01 -  01 06 -  64 -  -  F4 01 -  -  -            04 -  -  -  -  -  80 -  -  -  -  -  -  FE -  -  
Helm +1                              29 -  6F 29 01 -  01 06 -  64 -  -  F4 01 -  -  -            04 -  -  -  -  -  80 -  -  -  -  -  -  FE -  -  
Helm +1                              29 -  6F 29 01 -  01 06 -  64 -  -  F4 01 -  -  -            04 -  -  -  -  -  80 -  -  -  -  -  -  FE -  -  
Helm +1                              29 -  6F 29 01 -  01 06 -  64 -  -  F4 01 -  -  -            04 -  -  -  -  -  80 -  -  -  -  -  -  FE -  -  
Helm +2                              29 -  70 29 02 -  -  06 -  64 -  -  E8 03 -  -  -            04 -  -  -  -  -  80 -  -  -  -  -  -  FE -  -  
Helm +2                              29 -  70 29 02 -  -  06 -  64 -  -  E8 03 -  -  -            04 -  -  -  -  -  80 -  -  -  -  -  -  FE -  -  
Helm +2                              29 -  70 29 02 -  01 06 -  64 -  -  E8 03 -  -  -            04 -  -  -  -  -  80 -  -  -  -  -  -  FE -  -  
Helm +2                              29 -  70 29 02 -  01 06 -  64 -  -  E8 03 -  -  -            04 -  -  -  -  -  80 -  -  -  -  -  -  FE -  -  
Helm +2                              29 -  70 29 02 -  01 06 -  64 -  -  E8 03 -  -  -            04 -  -  -  -  -  80 -  -  -  -  -  -  FE -  -  
Helm +2                              29 -  70 29 02 -  01 06 -  64 -  -  E8 03 -  -  -            04 -  -  -  -  -  80 -  -  -  -  -  -  FE -  -  
Helm +2                              29 -  70 29 02 -  01 06 -  64 -  -  E8 03 -  -  -            04 -  -  -  -  -  80 -  -  -  -  -  -  FE -  -  
Helm +3                              29 -  71 29 03 -  -  06 -  64 -  -  40 06 -  -  -            04 -  -  -  -  -  80 -  -  -  -  -  -  FE -  -  
Javelin (5)                          07 -  -  07 -  -  -  -  -  14 -  05 -  -  -  -  -            -  01 01 06 -  02 -  80 80 01 06 -  06 E8 1A -  
Javelin +1 (2)                       07 -  6F 07 01 -  -  06 -  14 -  02 90 01 -  -  -            -  01 01 06 -  02 -  80 80 01 06 -  06 E8 1A -  
Javelin +2 (2)                       07 -  70 07 02 -  -  06 -  14 -  02 E8 03 -  -  -            -  01 01 06 -  02 -  80 80 01 06 -  06 E8 1A -  
Javelin +3 (2)                       07 -  71 07 03 -  -  06 -  14 -  02 DC 05 -  -  -            -  01 01 06 -  02 -  80 80 01 06 -  06 E8 1A -  
Javelin of Lightning                 07 58 5A 07 02 -  -  06 -  14 -  -  58 02 01 3C -            -  01 01 06 -  02 -  80 80 01 06 -  06 E8 1A -  
Kraken Mage Robe                     2B 2B 28 AA -  -  -  -  -  19 -  -  03 -  -  -  -            06 -  -  -  -  -  -  -  -  -  -  -  -  FF -  -  
Kraken Spell Enhancing Cloak         2C 2C A3 AA -  -  -  -  -  19 -  -  03 -  -  -  -            07 -  -  -  -  -  80 -  -  -  -  -  -  FF -  -  
Large Farrberjik                     2F -  94 93 -  -  -  04 -  64 -  -  39 02 -  -  -            0A -  -  -  -  -  -  -  -  -  -  -  -  FF -  -  
Leather Armor                        1F -  30 1F -  -  -  -  -  96 -  -  01 -  -  -  -            02 -  -  -  -  -  B4 -  -  -  -  -  -  FE -  -  
Leather Armor                        1F -  30 1F -  -  01 -  -  96 -  -  01 -  -  -  -            02 -  -  -  -  -  B4 -  -  -  -  -  -  FE -  -  
Leather Armor +1                     1F 6F 30 1F 01 -  -  04 -  96 -  -  90 01 -  -  -            02 -  -  -  -  -  B4 -  -  -  -  -  -  FE -  -  
Leather Armor +1                     1F 6F 30 1F 01 -  01 04 -  96 -  -  90 01 -  -  -            02 -  -  -  -  -  B4 -  -  -  -  -  -  FE -  -  
Leather Armor +1                     1F 6F 30 1F 01 -  01 04 -  96 -  -  90 01 -  -  -            02 -  -  -  -  -  B4 -  -  -  -  -  -  FE -  -  
Leather Armor +1                     1F 6F 30 1F 01 -  01 04 -  96 -  -  90 01 -  -  -            02 -  -  -  -  -  B4 -  -  -  -  -  -  FE -  -  
Leather Armor +1                     1F 6F 30 1F 01 -  01 04 -  96 -  -  90 01 -  -  -            02 -  -  -  -  -  B4 -  -  -  -  -  -  FE -  -  
Leather Armor +2                     1F 70 30 1F 02 -  -  04 -  96 -  -  DC 05 -  -  -            02 -  -  -  -  -  B4 -  -  -  -  -  -  FE -  -  
Leather Armor +3                     1F 71 30 1F 03 -  -  04 -  96 -  -  C4 09 -  -  -            02 -  -  -  -  -  B4 -  -  -  -  -  -  FE -  -  
Light Crossbow                       1B -  -  1B -  -  -  -  -  32 -  -  02 -  -  -  -            -  02 01 06 -  01 -  01 80 01 06 -  13 E8 8A -  
Light Crossbow +1                    1B -  6F 1B 01 -  -  06 -  32 -  -  BC 02 -  -  -            -  02 01 06 -  01 -  01 80 01 06 -  13 E8 8A -  
Light Crossbow +2                    1B -  70 1B 02 -  -  06 -  32 -  -  DC 05 -  -  -            -  02 01 06 -  01 -  01 80 01 06 -  13 E8 8A -  
Light Crossbow +3                    1B -  71 1B 03 -  -  06 -  32 -  -  C4 09 -  -  -            -  02 01 06 -  01 -  01 80 01 06 -  13 E8 8A -  
Light Crossbow Cursed -3             1B 76 4B 1B FD -  -  06 01 32 -  -  F4 01 -  -  -            -  02 01 06 -  01 -  01 80 01 06 -  13 E8 8A -  
Long Bow                             18 -  -  18 -  -  -  -  -  64 -  -  0C -  -  -  -            -  02 01 06 -  04 -  01 80 01 06 -  16 E8 0B -  
Long Bow                             18 -  -  18 -  -  01 -  -  64 -  -  0C -  -  -  -            -  02 01 06 -  04 -  01 80 01 06 -  16 E8 0B -  
Long Bow                             18 -  -  18 -  -  01 -  -  64 -  -  0C -  -  -  -            -  02 01 06 -  04 -  01 80 01 06 -  16 E8 0B -  
Long Sword                           12 -  -  12 -  -  -  -  -  3C -  -  03 -  -  -  -            -  01 01 0C -  -  -  01 -  01 08 -  -  EC 04 -  
Long Sword                           12 -  -  12 -  -  -  -  -  3C -  -  03 -  -  -  -            -  01 01 0C -  -  -  01 -  01 08 -  -  EC 04 -  
Long Sword                           12 -  -  12 -  -  01 -  -  3C -  -  03 -  -  -  -            -  01 01 0C -  -  -  01 -  01 08 -  -  EC 04 -  
Long Sword                           12 -  -  12 -  -  01 -  -  3C -  -  03 -  -  -  -            -  01 01 0C -  -  -  01 -  01 08 -  -  EC 04 -  
Long Sword +1                        12 -  6F 12 01 -  -  06 -  3C -  -  F4 01 -  -  -            -  01 01 0C -  -  -  01 -  01 08 -  -  EC 04 -  
Long Sword +1                        12 -  6F 12 01 -  -  06 -  3C -  -  F4 01 -  -  -            -  01 01 0C -  -  -  01 -  01 08 -  -  EC 04 -  
Long Sword +1                        12 -  6F 12 01 -  -  06 -  3C -  -  F4 01 -  -  -            -  01 01 0C -  -  -  01 -  01 08 -  -  EC 04 -  
Long Sword +1                        12 -  6F 12 01 -  -  06 -  3C -  -  F4 01 -  -  -            -  01 01 0C -  -  -  01 -  01 08 -  -  EC 04 -  
Long Sword +1                        12 -  6F 12 01 -  01 06 -  3C -  -  F4 01 -  -  -            -  01 01 0C -  -  -  01 -  01 08 -  -  EC 04 -  
Long Sword +1                        12 -  6F 12 01 -  01 06 -  3C -  -  F4 01 -  -  -            -  01 01 0C -  -  -  01 -  01 08 -  -  EC 04 -  
Long Sword +1                        12 -  6F 12 01 -  01 06 -  3C -  -  F4 01 -  -  -            -  01 01 0C -  -  -  01 -  01 08 -  -  EC 04 -  
Long Sword +1                        12 -  6F 12 01 -  01 06 -  3C -  -  F4 01 -  -  -            -  01 01 0C -  -  -  01 -  01 08 -  -  EC 04 -  
Long Sword +1                        12 -  6F 12 01 -  01 06 -  3C -  -  F4 01 -  -  -            -  01 01 0C -  -  -  01 -  01 08 -  -  EC 04 -  
Long Sword +2                        12 -  70 12 02 -  -  06 -  3C -  -  E8 03 -  -  -            -  01 01 0C -  -  -  01 -  01 08 -  -  EC 04 -  
Long Sword +2                        12 -  70 12 02 -  -  06 -  3C -  -  E8 03 -  -  -            -  01 01 0C -  -  -  01 -  01 08 -  -  EC 04 -  
Long Sword +2                        12 -  70 12 02 -  01 06 -  3C -  -  E8 03 -  -  -            -  01 01 0C -  -  -  01 -  01 08 -  -  EC 04 -  
Long Sword +2                        12 -  70 12 02 -  01 06 -  3C -  -  E8 03 -  -  -            -  01 01 0C -  -  -  01 -  01 08 -  -  EC 04 -  
Long Sword +3                        12 -  71 12 03 -  -  06 -  3C -  -  08 07 -  -  -            -  01 01 0C -  -  -  01 -  01 08 -  -  EC 04 -  
Long Sword +3                        12 -  71 12 03 -  01 06 -  3C -  -  08 07 -  -  -            -  01 01 0C -  -  -  01 -  01 08 -  -  EC 04 -  
Long Sword Broken                    12 -  73 12 05 -  -  06 -  3C -  -  A0 0F -  -  -            -  01 01 0C -  -  -  01 -  01 08 -  -  EC 04 -  
Long Sword vs Giants                 12 -  54 12 02 -  -  06 -  3C -  -  4C 04 -  4B 80           -  01 01 0C -  -  -  01 -  01 08 -  -  EC 04 -  
Lucky Paper of Daggerford (1)        2F 89 5A 7E -  -  -  -  -  -  -  01 -  -  -  05 0E           0A -  -  -  -  -  -  -  -  -  -  -  -  FF -  -  
Lucky Paper of Leilon (1)            2F 85 5A 7E -  -  -  -  -  -  -  01 -  -  -  01 0E           0A -  -  -  -  -  -  -  -  -  -  -  -  FF -  -  
Lucky Paper of Longsaddle (1)        2F 8C 5A 7E -  -  -  -  -  -  -  01 -  -  -  08 0E           0A -  -  -  -  -  -  -  -  -  -  -  -  FF -  -  
Lucky Paper of Luskan (1)            2F 8E 5A 7E -  -  -  -  -  -  -  01 -  -  -  0A 0E           0A -  -  -  -  -  -  -  -  -  -  -  -  FF -  -  
Lucky Paper of Mintarn (1)           2F 87 5A 7E -  -  -  -  -  -  -  01 -  -  -  03 0E           0A -  -  -  -  -  -  -  -  -  -  -  -  FF -  -  
Lucky Paper of Mirabar (1)           2F 8F 5A 7E -  -  -  -  -  -  -  01 -  -  -  0B 0E           0A -  -  -  -  -  -  -  -  -  -  -  -  FF -  -  
Lucky Paper of Neverwinter (1)       2F 8A 5A 7E -  -  -  -  -  -  -  01 -  -  -  06 0E           0A -  -  -  -  -  -  -  -  -  -  -  -  FF -  -  
Lucky Paper of Orlumbor (1)          2F 88 5A 7E -  -  -  -  -  -  -  01 -  -  -  04 0E           0A -  -  -  -  -  -  -  -  -  -  -  -  FF -  -  
Lucky Paper of Ruathym (1)           2F 8D 5A 7E -  -  -  -  -  -  -  01 -  -  -  09 0E           0A -  -  -  -  -  -  -  -  -  -  -  -  FF -  -  
Lucky Paper of Waterdeep (1)         2F 86 5A 7E -  -  -  -  -  -  -  01 -  -  -  02 0E           0A -  -  -  -  -  -  -  -  -  -  -  -  FF -  -  
Lucky Paper of Yartar (1)            2F 8B 5A 7E -  -  -  -  -  -  -  01 -  -  -  07 0E           0A -  -  -  -  -  -  -  -  -  -  -  -  FF -  -  
Luskan High Captains                 2F -  B4 8E -  -  -  04 -  19 -  -  64 -  -  3D 10           0A -  -  -  -  -  -  -  -  -  -  -  -  FF -  -  
Mace                                 08 -  -  08 -  -  -  -  -  64 -  -  02 -  -  -  -            -  01 01 06 -  -  -  80 -  01 06 01 -  EA 04 -  
Mace +1                              08 -  6F 08 01 -  -  06 -  64 -  -  58 02 -  -  -            -  01 01 06 -  -  -  80 -  01 06 01 -  EA 04 -  
Mace +2                              08 -  70 08 02 -  -  06 -  64 -  -  84 03 -  -  -            -  01 01 06 -  -  -  80 -  01 06 01 -  EA 04 -  
Mace +2                              08 -  70 08 02 -  01 06 -  64 -  -  84 03 -  -  -            -  01 01 06 -  -  -  80 -  01 06 01 -  EA 04 -  
Mace +3                              08 -  71 08 03 -  -  06 -  64 -  -  D0 07 -  -  -            -  01 01 06 -  -  -  80 -  01 06 01 -  EA 04 -  
Mage Scroll 3 Spells                 27 66 27 28 01 -  -  04 -  19 -  -  38 04 6E 70 71           0B -  -  -  -  -  -  -  80 -  -  -  -  05 -  -  
Mage Scroll 3 Spells                 27 66 27 28 01 -  -  04 -  19 -  -  58 02 6F 36 09           0B -  -  -  -  -  -  -  80 -  -  -  -  05 -  -  
Mage Scroll 3 Spells                 27 66 27 28 01 -  -  04 -  19 -  -  68 01 21 1F 23           0B -  -  -  -  -  -  -  80 -  -  -  -  05 -  -  
Mage Scroll 3 Spells                 27 66 27 28 01 -  -  04 -  19 -  -  68 01 54 0F 0F           0B -  -  -  -  -  -  -  80 -  -  -  -  05 -  -  
Mage Scroll 3 Spells                 27 66 27 28 01 -  -  04 -  19 -  -  84 03 5E 76 77           0B -  -  -  -  -  -  -  80 -  -  -  -  05 -  -  
Mage Scroll 3 Spells                 27 66 27 28 01 -  -  04 -  19 -  -  CC 06 73 7E 7D           0B -  -  -  -  -  -  -  80 -  -  -  -  05 -  -  
Mage Scroll 3 Spells                 27 66 27 28 01 -  -  04 -  19 -  -  D0 02 5E 51 31           0B -  -  -  -  -  -  -  80 -  -  -  -  05 -  -  
Mage Scroll 3 Spells                 27 66 27 28 01 -  -  04 -  19 -  -  E0 01 37 2D 22           0B -  -  -  -  -  -  -  80 -  -  -  -  05 -  -  
Mage Scroll 3 Spells                 27 66 27 28 01 -  -  04 -  19 -  -  E0 01 55 36 13           0B -  -  -  -  -  -  -  80 -  -  -  -  05 -  -  
Mage Scroll 3 Spells                 27 66 27 28 01 -  -  04 -  19 -  -  FC 03 5C 71 72           0B -  -  -  -  -  -  -  80 -  -  -  -  05 -  -  
Military Pick                        0A -  -  0A -  -  -  -  -  3C -  -  02 -  -  -  -            -  01 02 04 -  -  -  80 -  01 06 01 -  E8 04 -  
Mirror                               30 -  -  51 -  -  -  -  -  05 -  -  04 -  -  48 80           0A 01 -  -  -  -  -  -  -  -  -  -  -  FF -  -  
Morning Star                         09 -  -  09 -  -  -  -  -  7D -  -  01 -  -  -  -            -  01 01 06 01 -  -  80 -  02 04 -  -  FA 04 -  
Morning Star                         09 -  -  09 -  -  01 -  -  7D -  -  01 -  -  -  -            -  01 01 06 01 -  -  80 -  02 04 -  -  FA 04 -  
Necklace of Missiles                 2F 63 5A 52 01 -  -  06 -  32 -  -  58 02 14 40 -            0A -  -  -  -  -  -  -  -  -  -  -  -  FF -  -  
Periapt of Health                    2F 4A 5A 49 01 -  -  -  -  05 -  -  D0 07 -  4C 80           0A -  -  -  -  -  -  -  -  -  -  -  -  FF -  -  
Plate Mail                           24 -  2F 24 -  -  -  -  -  C2 01 -  50 -  -  -  -            02 -  -  -  -  -  B9 -  -  -  -  -  -  DA -  -  
Plate Mail                           24 -  2F 24 -  -  01 -  -  C2 01 -  50 -  -  -  -            02 -  -  -  -  -  B9 -  -  -  -  -  -  DA -  -  
Plate Mail                           24 -  2F 24 -  -  01 -  -  C2 01 -  50 -  -  -  -            02 -  -  -  -  -  B9 -  -  -  -  -  -  DA -  -  
Plate Mail                           24 -  2F 24 -  -  01 -  -  C2 01 -  50 -  -  -  -            02 -  -  -  -  -  B9 -  -  -  -  -  -  DA -  -  
Plate Mail +1                        24 6F 2F 24 01 -  -  04 -  C2 01 -  E8 03 -  -  -            02 -  -  -  -  -  B9 -  -  -  -  -  -  DA -  -  
Plate Mail +1                        24 6F 2F 24 01 -  01 04 -  C2 01 -  E8 03 -  -  -            02 -  -  -  -  -  B9 -  -  -  -  -  -  DA -  -  
Plate Mail +1                        24 6F 2F 24 01 -  01 04 -  C2 01 -  E8 03 -  -  -            02 -  -  -  -  -  B9 -  -  -  -  -  -  DA -  -  
Plate Mail +1                        24 6F 2F 24 01 -  01 04 -  C2 01 -  E8 03 -  -  -            02 -  -  -  -  -  B9 -  -  -  -  -  -  DA -  -  
Plate Mail +1                        24 6F 2F 24 01 -  01 04 -  C2 01 -  E8 03 -  -  -            02 -  -  -  -  -  B9 -  -  -  -  -  -  DA -  -  
Plate Mail +1                        24 6F 2F 24 01 -  01 04 -  C2 01 -  E8 03 -  -  -            02 -  -  -  -  -  B9 -  -  -  -  -  -  DA -  -  
Plate Mail +2                        24 70 2F 24 02 -  -  04 -  C2 01 -  34 08 -  -  -            02 -  -  -  -  -  B9 -  -  -  -  -  -  DA -  -  
Plate Mail +2                        24 70 2F 24 02 -  01 04 -  C2 01 -  34 08 -  -  -            02 -  -  -  -  -  B9 -  -  -  -  -  -  DA -  -  
Plate Mail +2                        24 70 2F 24 02 -  01 04 -  C2 01 -  34 08 -  -  -            02 -  -  -  -  -  B9 -  -  -  -  -  -  DA -  -  
Plate Mail +2                        24 70 2F 24 02 -  01 04 -  C2 01 -  34 08 -  -  -            02 -  -  -  -  -  B9 -  -  -  -  -  -  DA -  -  
Plate Mail +2                        24 70 2F 24 02 -  01 04 -  C2 01 -  34 08 -  -  -            02 -  -  -  -  -  B9 -  -  -  -  -  -  DA -  -  
Plate Mail +2                        24 70 2F 24 02 -  01 04 -  C2 01 -  34 08 -  -  -            02 -  -  -  -  -  B9 -  -  -  -  -  -  DA -  -  
Plate Mail +3                        24 71 2F 24 03 -  -  04 -  C2 01 -  1C 0C -  -  -            02 -  -  -  -  -  B9 -  -  -  -  -  -  DA -  -  
Potion Extra Healing                 2F 5F 5E 35 01 -  -  06 -  14 -  -  A0 -  03 63 -            0A -  -  -  -  -  -  -  -  -  -  -  -  FF -  -  
Potion of Giant Strength             35 50 5A 35 01 -  -  06 -  14 -  -  18 01 01 3B -            0A -  -  -  -  -  -  -  -  -  -  -  -  FF -  -  
Potion of Healing                    2F 5F 5A 35 01 -  -  06 -  14 -  -  50 -  01 3E -            0A -  -  -  -  -  -  -  -  -  -  -  -  FF -  -  
Potion of Invisibility               2F 68 5A 35 01 -  -  06 -  14 -  -  64 -  01 61 -            0A -  -  -  -  -  -  -  -  -  -  -  -  FF -  -  
Potion of Speed                      2F 5C 5A 35 01 -  -  06 -  14 -  -  5A -  01 39 -            0A -  -  -  -  -  -  -  -  -  -  -  -  FF -  -  
Potion of Spell Enhancing            2F A3 5A 35 01 -  -  06 -  14 -  -  12 02 01 9F 11           0A -  -  -  -  -  -  -  -  -  -  -  -  FF -  -  
Quarter Staff                        0F -  -  0F -  -  -  -  -  32 -  -  01 -  -  -  -            -  02 01 06 -  -  -  80 -  01 06 -  -  FB 04 -  
Quarter Staff +1                     0F -  6F 0F 01 -  -  06 -  32 -  -  90 01 -  -  -            -  02 01 06 -  -  -  80 -  01 06 -  -  FB 04 -  
Quarter Staff +2                     0F -  70 0F 02 -  -  06 -  32 -  -  20 03 -  -  -            -  02 01 06 -  -  -  80 -  01 06 -  -  FB 04 -  
Quarter Staff +2                     0F -  70 0F 02 -  -  06 -  32 -  -  20 03 -  -  -            -  02 01 06 -  -  -  80 -  01 06 -  -  FB 04 -  
Quarter Staff +3                     0F -  71 0F 03 -  -  06 -  32 -  -  78 05 -  -  -            -  02 01 06 -  -  -  80 -  01 06 -  -  FB 04 -  
Real Kraken Dagger                   04 04 AA 90 -  -  -  -  -  0A -  -  03 -  -  -  -            -  01 01 03 -  01 -  01 -  01 04 -  04 FD 14 -  
Redflame Armor +2                    24 -  70 A0 02 02 -  06 -  C2 01 -  34 08 -  3D 80           02 -  -  -  -  -  B9 -  -  -  -  -  -  DA -  -  
Ring                                 2E -  -  2E -  -  -  -  -  01 -  -  64 -  -  -  -            09 -  -  -  -  -  -  -  -  -  -  -  -  FF -  -  
Ring                                 2E -  -  2E -  -  -  06 -  01 -  -  0A -  -  -  -            09 -  -  -  -  -  -  -  -  -  -  -  -  FF -  -  
Ring Mail                            20 -  2F 20 -  -  -  -  -  FA -  -  06 -  -  -  -            02 -  -  -  -  -  B5 -  80 -  -  -  -  FE -  -  
Ring Mail                            20 -  2F 20 -  -  01 -  -  FA -  -  06 -  -  -  -            02 -  -  -  -  -  B5 -  80 -  -  -  -  FE -  -  
Ring Mail +1                         20 6F 2F 20 01 -  -  04 -  FA -  -  F4 01 -  -  -            02 -  -  -  -  -  B5 -  80 -  -  -  -  FE -  -  
Ring Mail +2                         20 70 2F 20 02 -  -  04 -  FA -  -  B0 04 -  -  -            02 -  -  -  -  -  B5 -  80 -  -  -  -  FE -  -  
Ring Mail +3                         20 71 2F 20 03 -  -  04 -  FA -  -  78 05 -  -  -            02 -  -  -  -  -  B5 -  80 -  -  -  -  FE -  -  
Ring of Blinking                     2E 7C 5A 2E -  01 -  06 -  01 -  -  E8 03 -  25 80           09 -  -  -  -  -  -  -  -  -  -  -  -  FF -  -  
Ring of Cold Resistance              2E 56 5A 2E -  01 -  06 -  01 -  -  E8 03 -  0A 80           09 -  -  -  -  -  -  -  -  -  -  -  -  FF -  -  
Ring of Electrical Immunity          2E 77 5A 2E -  01 -  06 -  01 -  -  E8 03 -  06 80           09 -  -  -  -  -  -  -  -  -  -  -  -  FF -  -  
Ring of Fire Resistance              2E 43 5A 2E -  01 -  06 -  01 -  -  E8 03 -  3D 80           09 -  -  -  -  -  -  -  -  -  -  -  -  FF -  -  
Ring of Invisibility                 2E 68 5A 2E -  01 -  06 -  01 -  -  DC 05 -  38 80           09 -  -  -  -  -  -  -  -  -  -  -  -  FF -  -  
Ring Of Prot. +1                     3B 6F 31 2E 01 01 -  06 -  01 -  -  D0 07 -  -  -            09 -  -  -  -  -  80 -  -  -  -  -  -  FF -  -  
Ring Of Prot. +1                     3B 6F 31 2E 01 01 01 06 -  01 -  -  D0 07 -  -  -            09 -  -  -  -  -  80 -  -  -  -  -  -  FF -  -  
Ring Of Prot. +2                     3B 70 31 2E 02 02 -  06 -  01 -  -  C4 09 -  -  -            09 -  -  -  -  -  80 -  -  -  -  -  -  FF -  -  
Ring Of Prot. +2                     3B 70 31 2E 02 02 01 06 -  01 -  -  C4 09 -  -  -            09 -  -  -  -  -  80 -  -  -  -  -  -  FF -  -  
Ring Of Prot. +3                     3B 71 31 2E 03 03 -  06 -  01 -  -  B8 0B -  -  -            09 -  -  -  -  -  80 -  -  -  -  -  -  FF -  -  
Ring Of Prot. +4                     3B 72 31 2E 04 04 -  06 -  01 -  -  AC 0D -  -  -            09 -  -  -  -  -  80 -  -  -  -  -  -  FF -  -  
Ring Of Prot. Broken                 3B 73 31 20 05 05 -  06 -  01 -  -  A0 0F -  -  -            09 -  -  -  -  -  80 -  -  -  -  -  -  FF -  -  
Ring Of Prot. From Evil              2E 7D 31 2E -  01 -  06 -  01 -  -  E8 03 -  2D 80           09 -  -  -  -  -  -  -  -  -  -  -  -  FF -  -  
Ring of Wizardry                     41 41 5A 2E -  01 -  06 -  01 -  -  10 27 -  -  81           09 -  -  -  -  -  -  -  -  -  -  -  -  01 -  -  
Ring of Vulnerability                2E 5B 5A 2E FD FD -  06 01 01 -  -  90 01 -  24 80           09 -  -  -  -  -  -  -  -  -  -  -  -  FF -  -  
Robe                                 2B -  -  2B -  -  -  -  -  19 -  -  01 -  -  -  -            06 -  -  -  -  -  -  -  -  -  -  -  -  FF -  -  
Robe                                 2B -  -  2B -  -  01 -  -  19 -  -  01 -  -  -  -            06 -  -  -  -  -  -  -  -  -  -  -  -  FF -  -  
Robe                                 2B -  -  2B -  -  01 -  -  19 -  -  01 -  -  -  -            06 -  -  -  -  -  -  -  -  -  -  -  -  FF -  -  
Rod of Cold                          33 B0 5A A5 -  -  -  06 -  3C -  -  10 27 08 5C -            0A 01 -  -  -  -  -  -  -  -  -  -  63 ED -  -  
Rod of Stone to Flesh                33 A6 5A A5 01 -  -  06 -  3C -  -  08 07 05 71 -            0A 01 -  -  -  -  -  -  -  -  -  -  63 ED -  -  
Scale Mail                           21 -  2F 21 -  -  -  -  -  90 01 -  09 -  -  -  -            02 -  -  -  -  -  B6 -  80 -  -  -  -  FA -  -  
Scale Mail +1                        21 6F 2F 21 01 -  -  04 -  90 01 -  58 02 -  -  -            02 -  -  -  -  -  B6 -  80 -  -  -  -  FA -  -  
Scale Mail +1                        21 6F 2F 21 01 -  01 04 -  90 01 -  58 02 -  -  -            02 -  -  -  -  -  B6 -  80 -  -  -  -  FA -  -  
Scale Mail +2                        21 70 2F 21 02 -  -  04 -  90 01 -  46 05 -  -  -            02 -  -  -  -  -  B6 -  80 -  -  -  -  FA -  -  
Scale Mail +3                        21 71 2F 21 03 -  -  04 -  90 01 -  40 06 -  -  -            02 -  -  -  -  -  B6 -  80 -  -  -  -  FA -  -  
Scimitar                             0D -  -  0D -  -  -  -  -  28 -  -  03 -  -  -  -            -  01 01 08 -  -  -  01 -  01 08 -  -  E8 04 -  
Scimitar                             0D -  -  0D -  -  01 -  -  28 -  -  03 -  -  -  -            -  01 01 08 -  -  -  01 -  01 08 -  -  E8 04 -  
Scimitar +1                          0D -  6F 0D 01 -  -  06 -  28 -  -  90 01 -  -  -            -  01 01 08 -  -  -  01 -  01 08 -  -  E8 04 -  
Scimitar +1                          0D -  6F 0D 01 -  -  06 -  28 -  -  90 01 -  -  -            -  01 01 08 -  -  -  01 -  01 08 -  -  E8 04 -  
Scimitar +2                          0D -  70 0D 02 -  -  06 -  28 -  -  B0 04 -  -  -            -  01 01 08 -  -  -  01 -  01 08 -  -  E8 04 -  
Scimitar +3                          0D -  71 0D 03 -  -  06 -  28 -  -  D0 07 -  -  -            -  01 01 08 -  -  -  01 -  01 08 -  -  E8 04 -  
Scroll Of Prot. Dragon Breath        26 39 31 27 -  01 -  06 -  19 -  -  A0 0F -  5F -            0A -  -  -  -  -  -  -  80 -  -  -  -  FF -  -  
Shield                               25 -  -  25 -  -  -  -  -  64 -  -  03 -  -  -  -            01 01 -  -  -  -  81 -  -  -  -  -  -  FE -  -  
Shield                               25 -  -  25 -  -  -  -  -  64 -  -  03 -  -  -  -            01 01 -  -  -  -  81 -  -  -  -  -  -  FE -  -  
Shield                               25 -  -  25 -  -  01 -  -  64 -  -  03 -  -  -  -            01 01 -  -  -  -  81 -  -  -  -  -  -  FE -  -  
Shield                               25 -  -  25 -  -  01 -  -  64 -  -  03 -  -  -  -            01 01 -  -  -  -  81 -  -  -  -  -  -  FE -  -  
Shield                               25 -  -  25 -  -  01 -  -  64 -  -  03 -  -  -  -            01 01 -  -  -  -  81 -  -  -  -  -  -  FE -  -  
Shield                               25 -  -  25 -  -  01 -  -  64 -  -  03 -  -  -  -            01 01 -  -  -  -  81 -  -  -  -  -  -  FE -  -  
Shield                               25 -  -  25 -  -  01 -  -  64 -  -  03 -  -  -  -            01 01 -  -  -  -  81 -  -  -  -  -  -  FE -  -  
Shield                               25 -  -  25 -  -  01 -  -  64 -  -  03 -  -  -  -            01 01 -  -  -  -  81 -  -  -  -  -  -  FE -  -  
Shield                               25 -  -  25 -  -  01 -  -  64 -  -  03 -  -  -  -            01 01 -  -  -  -  81 -  -  -  -  -  -  FE -  -  
Shield                               25 -  -  25 -  -  01 -  -  64 -  -  03 -  -  -  -            01 01 -  -  -  -  81 -  -  -  -  -  -  FE -  -  
Shield                               25 -  -  25 -  -  01 -  -  64 -  -  03 -  -  -  -            01 01 -  -  -  -  81 -  -  -  -  -  -  FE -  -  
Shield                               25 -  -  25 -  -  01 -  -  64 -  -  03 -  -  -  -            01 01 -  -  -  -  81 -  -  -  -  -  -  FE -  -  
Shield                               25 -  -  25 -  -  01 -  -  64 -  -  03 -  -  -  -            01 01 -  -  -  -  81 -  -  -  -  -  -  FE -  -  
Shield                               25 -  -  25 -  -  01 -  -  64 -  -  03 -  -  -  -            01 01 -  -  -  -  81 -  -  -  -  -  -  FE -  -  
Shield +1                            25 -  6F 25 01 -  -  06 -  64 -  -  F4 01 -  -  -            01 01 -  -  -  -  81 -  -  -  -  -  -  FE -  -  
Shield +1                            25 -  6F 25 01 -  01 06 -  64 -  -  F4 01 -  -  -            01 01 -  -  -  -  81 -  -  -  -  -  -  FE -  -  
Shield +1                            25 -  6F 25 01 -  01 06 -  64 -  -  F4 01 -  -  -            01 01 -  -  -  -  81 -  -  -  -  -  -  FE -  -  
Shield +1                            25 -  6F 25 01 -  01 06 -  64 -  -  F4 01 -  -  -            01 01 -  -  -  -  81 -  -  -  -  -  -  FE -  -  
Shield +1                            25 -  6F 25 01 -  01 06 -  64 -  -  F4 01 -  -  -            01 01 -  -  -  -  81 -  -  -  -  -  -  FE -  -  
Shield +1                            25 -  6F 25 01 -  01 06 -  64 -  -  F4 01 -  -  -            01 01 -  -  -  -  81 -  -  -  -  -  -  FE -  -  
Shield +1                            25 -  6F 25 01 -  01 06 -  64 -  -  F4 01 -  -  -            01 01 -  -  -  -  81 -  -  -  -  -  -  FE -  -  
Shield +1                            25 -  6F 25 01 -  01 06 -  64 -  -  F4 01 -  -  -            01 01 -  -  -  -  81 -  -  -  -  -  -  FE -  -  
Shield +1                            25 -  6F 25 01 -  01 06 -  64 -  -  F4 01 -  -  -            01 01 -  -  -  -  81 -  -  -  -  -  -  FE -  -  
Shield +2                            25 -  70 25 02 -  -  06 -  64 -  -  E8 03 -  -  -            01 01 -  -  -  -  81 -  -  -  -  -  -  FE -  -  
Shield +2                            25 -  70 25 02 -  -  06 -  64 -  -  E8 03 -  -  -            01 01 -  -  -  -  81 -  -  -  -  -  -  FE -  -  
Shield +2                            25 -  70 25 02 -  -  06 -  64 -  -  E8 03 -  -  -            01 01 -  -  -  -  81 -  -  -  -  -  -  FE -  -  
Shield +2                            25 -  70 25 02 -  -  06 -  64 -  -  E8 03 -  -  -            01 01 -  -  -  -  81 -  -  -  -  -  -  FE -  -  
Shield +2                            25 -  70 25 02 -  01 06 -  64 -  -  E8 03 -  -  -            01 01 -  -  -  -  81 -  -  -  -  -  -  FE -  -  
Shield +2                            25 -  70 25 02 -  01 06 -  64 -  -  E8 03 -  -  -            01 01 -  -  -  -  81 -  -  -  -  -  -  FE -  -  
Shield +3                            25 -  71 25 03 -  -  06 -  64 -  -  40 06 -  -  -            01 01 -  -  -  -  81 -  -  -  -  -  -  FE -  -  
Short Bow                            19 -  -  19 -  -  -  -  -  32 -  -  03 -  -  -  -            -  02 01 06 -  04 -  01 80 01 06 -  10 EC 0B -  
Short Bow                            19 -  -  19 -  -  -  -  -  32 -  -  03 -  -  -  -            -  02 01 06 -  04 -  01 80 01 06 -  10 EC 0B -  
Short Sword                          13 -  -  13 -  -  -  -  -  23 -  -  02 -  -  -  -            -  01 01 08 -  -  -  01 -  01 06 -  -  EC 04 -  
Short Sword                          13 -  -  13 -  -  01 -  -  23 -  -  02 -  -  -  -            -  01 01 08 -  -  -  01 -  01 06 -  -  EC 04 -  
Short Sword +1                       13 -  6F 13 01 -  -  06 -  23 -  -  90 01 -  -  -            -  01 01 08 -  -  -  01 -  01 06 -  -  EC 04 -  
Short Sword +1                       13 -  6F 13 01 -  01 06 -  23 -  -  90 01 -  -  -            -  01 01 08 -  -  -  01 -  01 06 -  -  EC 04 -  
Short Sword +1                       13 -  6F 13 01 -  01 06 -  23 -  -  90 01 -  -  -            -  01 01 08 -  -  -  01 -  01 06 -  -  EC 04 -  
Short Sword +2                       13 -  70 13 02 -  -  06 -  23 -  -  20 03 -  -  -            -  01 01 08 -  -  -  01 -  01 06 -  -  EC 04 -  
Short Sword +3                       13 -  71 13 03 -  -  06 -  23 -  -  78 05 -  -  -            -  01 01 08 -  -  -  01 -  01 06 -  -  EC 04 -  
Short Sword +3                       13 -  71 13 03 -  01 06 -  23 -  -  78 05 -  -  -            -  01 01 08 -  -  -  01 -  01 06 -  -  EC 04 -  
Short Sword Broken                   13 -  73 13 05 -  -  06 -  23 -  -  B8 0B -  -  -            -  01 01 08 -  -  -  01 -  01 06 -  -  EC 04 -  
Silver Shield +3                     25 71 25 5D 03 03 -  04 -  64 -  -  80 0C -  48 80           01 01 -  -  -  -  81 -  -  -  -  -  -  FE -  -  
Silver Shield +4                     25 72 25 5D 04 04 -  04 -  64 -  -  58 1B -  48 80           01 01 -  -  -  -  81 -  -  -  -  -  -  FE -  -  
Sling                                1C -  -  1C -  -  -  -  -  0A -  -  01 -  -  -  -            -  01 01 04 -  02 -  01 80 01 04 -  13 FD 0A -  
Sling                                1C -  -  1C -  -  01 -  -  0A -  -  01 -  -  -  -            -  01 01 04 -  02 -  01 80 01 04 -  13 FD 0A -  
Sling +1                             1C -  6F 1C 01 -  -  06 -  0A -  -  BC 02 -  -  -            -  01 01 04 -  02 -  01 80 01 04 -  13 FD 0A -  
Sling +2                             1C -  70 1C 02 -  -  06 -  0A -  -  DC 05 -  -  -            -  01 01 04 -  02 -  01 80 01 04 -  13 FD 0A -  
Sling +3                             1C -  71 1C 03 -  -  06 -  0A -  -  C4 09 -  -  -            -  01 01 04 -  02 -  01 80 01 04 -  13 FD 0A -  
Spear                                0E -  -  0E -  -  -  -  -  32 -  -  01 -  -  -  -            -  01 01 08 -  01 -  01 -  01 06 -  -  F8 04 -  
Squid Shield +2                      25 -  70 9F 02 -  -  06 -  64 -  -  E8 03 -  -  -            01 01 -  -  -  -  81 -  -  -  -  -  -  FE -  -  
Staff of Striking                    5C A4 5A 1D 03 -  -  06 -  64 -  -  B8 0B 14 01 -            -  01 01 06 06 -  -  80 -  01 06 06 -  03 -  -  
Staff Sling                          1D -  1C 1D -  -  -  -  -  3C -  -  01 -  -  -  -            -  02 03 03 -  01 -  80 80 02 04 -  0B FA 0A -  
Staff Sling                          1D -  1C 1D -  -  01 -  -  3C -  -  01 -  -  -  -            -  02 03 03 -  01 -  80 80 02 04 -  0B FA 0A -  
Staff Sling +1                       1D 6F 1C 1D 01 -  -  04 -  3C -  -  20 03 -  -  -            -  02 03 03 -  01 -  80 80 02 04 -  0B FA 0A -  
Staff Sling +2                       1D 70 1C 1D 02 -  -  04 -  3C -  -  08 07 -  -  -            -  02 03 03 -  01 -  80 80 02 04 -  0B FA 0A -  
Staff Sling +3                       1D 71 1C 1D 03 -  -  04 -  3C -  -  B8 0B -  -  -            -  02 03 03 -  01 -  80 80 02 04 -  0B FA 0A -  
Stone of Good Luck                   2F 45 5A 44 01 -  -  06 -  0A -  -  88 13 -  4E 80           0A -  -  -  -  -  -  -  -  -  -  -  -  FF -  -  
Sword of Stalking +4                 10 72 9E 83 04 -  -  06 -  64 -  -  D0 07 -  -  -            -  02 02 08 -  -  -  01 -  02 04 -  -  E8 04 -  
The Bloodaxe +3                      01 71 99 AB 03 -  -  04 -  4B -  -  9E 07 -  -  -            -  02 01 08 -  01 -  01 -  01 08 -  -  E8 04 -  
The Northhelm +2                     29 70 9C AB 02 -  -  04 -  64 -  -  08 07 -  0A 80           04 -  -  -  -  -  80 -  -  -  -  -  -  FE -  -  
The Redshield +2                     25 70 9A AB 02 -  -  04 -  64 -  -  E8 03 -  -  -            01 01 -  -  -  -  81 -  -  -  -  -  -  FE -  -  
The Seahelm +2                       29 70 A1 AB 02 -  -  04 -  64 -  -  E8 03 -  -  -            04 -  -  -  -  -  80 -  -  -  -  -  -  FE -  -  
The Shearhammer +3                   06 71 9B AB 03 -  -  04 -  32 -  -  B8 0B -  -  -            -  01 01 04 -  01 -  80 -  01 04 01 05 FE 14 -  
Treasure Map                         2F -  A2 AE -  -  -  04 -  19 -  -  C8 -  -  3B 10           0A -  -  -  -  -  -  -  -  -  -  -  -  FF -  -  
Trident                              15 -  -  15 -  -  -  -  -  32 -  -  01 -  -  -  -            -  02 03 04 -  -  -  01 -  01 06 01 -  E8 04 -  
Trident +1                           15 -  6F 15 01 -  -  06 -  32 -  -  90 01 -  -  -            -  02 03 04 -  -  -  01 -  01 06 01 -  E8 04 -  
Trident +2                           15 -  70 15 02 -  -  06 -  32 -  -  20 03 -  -  -            -  02 03 04 -  -  -  01 -  01 06 01 -  E8 04 -  
Trident +3                           15 -  71 15 03 -  -  06 -  32 -  -  78 05 -  -  -            -  02 03 04 -  -  -  01 -  01 06 01 -  E8 04 -  
Tunnels of Orlumbor                  2F 88 5A B5 -  -  -  -  -  19 -  -  0A -  -  3C 10           0A -  -  -  -  -  -  -  -  -  -  -  -  FF -  -  
Two-Handed Sword                     14 -  -  14 -  -  -  -  -  FA -  -  06 -  -  -  -            -  02 03 06 -  -  -  01 -  01 0A -  -  E8 04 -  
Two-Handed Sword +1                  14 -  6F 14 01 -  -  06 -  FA -  -  F4 01 -  -  -            -  02 03 06 -  -  -  01 -  01 0A -  -  E8 04 -  
Two-Handed Sword +1                  14 -  6F 14 01 -  -  06 -  FA -  -  F4 01 -  -  -            -  02 03 06 -  -  -  01 -  01 0A -  -  E8 04 -  
Two-Handed Sword +2                  14 -  70 14 02 -  -  06 -  FA -  -  E8 03 -  -  -            -  02 03 06 -  -  -  01 -  01 0A -  -  E8 04 -  
Two-Handed Sword +2                  14 -  70 14 02 -  01 06 -  FA -  -  E8 03 -  -  -            -  02 03 06 -  -  -  01 -  01 0A -  -  E8 04 -  
Two-Handed Sword +3                  14 -  71 14 03 -  -  06 -  FA -  -  08 07 -  -  -            -  02 03 06 -  -  -  01 -  01 0A -  -  E8 04 -  
Two-Handed Sword Broken              14 -  73 14 05 -  -  06 -  FA -  -  A0 0F -  -  -            -  02 03 06 -  -  -  01 -  01 0A -  -  E8 04 -  
Tyrant's Trident +3                  15 -  71 9D 03 -  -  06 -  32 -  -  C4 09 -  -  -            -  02 03 04 -  -  -  01 -  01 06 01 -  E8 04 -  
Wand of Fireballs                    33 59 5A 33 01 -  -  06 -  3C -  -  80 0C 14 2F -            0A 01 -  -  -  -  -  -  -  -  -  -  63 ED -  -  
Wand of Ice Storm                    33 3E 5A 33 01 -  -  06 -  3C -  -  A0 0F 14 57 -            0A 01 -  -  -  -  -  -  -  -  -  -  63 ED -  -  
Wand of Lightning                    33 58 5A 33 01 -  -  06 -  3C -  -  80 0C 14 33 -            0A 01 -  -  -  -  -  -  -  -  -  -  63 ED -  -  
Wand of Magic Missiles               33 62 5A 33 01 -  -  06 -  3C -  -  58 1B 14 41 -            0A 01 -  -  -  -  -  -  -  -  -  -  63 ED -  -  
Wand of Magic Missiles               33 62 5A 33 01 -  -  06 -  3C -  -  E8 03 14 41 -            0A 01 -  -  -  -  -  -  -  -  -  -  63 ED -  -  
Wand of Magic Missiles               33 62 5A 33 01 -  01 06 -  3C -  -  58 1B 14 41 -            0A 01 -  -  -  -  -  -  -  -  -  -  63 ED -  -  
Wand of Paralyzation                 33 67 5A 33 01 -  -  06 -  3C -  -  88 13 14 3D -            0A 01 -  -  -  -  -  -  -  -  -  -  63 ED -  -  
Vorpal Long Sword                    49 -  12 55 03 -  -  05 -  3C -  -  10 27 -  73 80           -  01 01 0C -  -  -  01 80 01 08 -  -  E8 04 -  



           damage vs large          damage vs small/medium
           x d x + x    protective  x d x + x
               |        value   mel |
               |           |    type|          class restrictions
hands required |           | wpn |  |           |
            |  |   rate of | type|  |           | missile type
       slot |  |      fire |  |  |  |     range |  |
         |  |  |_____   |  |  |  |  |_____   |  |  | unused
         |  |  |  |  |  |  |  |  |  |  |  |  |  |  |  |
         00 01 02 03 04 05 06 07 08 09 0A 0B 0C 0D 0E 0F 

00:      -  -  -  -  -  -  -  -  -  -  -  -  -  -  -  -  
01:      -  02 01 08 -  01 -  01 -  01 08 -  -  E8 04 -  
02:      -  01 01 04 -  01 -  01 -  01 06 -  01 E8 14 -  
03:      -  01 01 03 -  01 -  80 -  01 06 -  03 FE 14 -  
04:      -  01 01 03 -  01 -  01 -  01 04 -  04 FD 14 -  
05:      -  01 01 02 -  06 -  01 80 01 03 -  05 FD 1A -  
06:      -  01 01 04 -  01 -  80 -  01 04 01 05 FE 14 -  
07:      -  01 01 06 -  02 -  80 80 01 06 -  06 E8 1A -  
08:      -  01 01 06 -  -  -  80 -  01 06 01 -  EA 04 -  
09:      -  01 01 06 01 -  -  80 -  02 04 -  -  FA 04 -  
0A:      -  01 02 04 -  -  -  80 -  01 06 01 -  E8 04 -  
0B:      -  02 01 0C -  -  -  01 -  01 06 01 -  E8 04 -  
0C:      0A -  01 04 -  01 -  01 80 01 04 -  -  E8 12 -  
0D:      -  01 01 08 -  -  -  01 -  01 08 -  -  E8 04 -  
0E:      -  01 01 08 -  01 -  01 -  01 06 -  -  F8 04 -  
0F:      -  02 01 06 -  -  -  80 -  01 06 -  -  FB 04 -  
10:      -  02 02 08 -  -  -  01 -  02 04 -  -  E8 04 -  
11:      -  01 01 06 01 -  -  01 -  02 04 -  -  EC 04 -  
12:      -  01 01 0C -  -  -  01 -  01 08 -  -  EC 04 -  
13:      -  01 01 08 -  -  -  01 -  01 06 -  -  EC 04 -  
14:      -  02 03 06 -  -  -  01 -  01 0A -  -  E8 04 -  
15:      -  02 03 04 -  -  -  01 -  01 06 01 -  E8 04 -  
16:      -  02 01 06 -  04 -  01 80 01 06 -  16 E8 0B -  
17:      -  02 01 06 -  04 -  01 80 01 06 -  13 E8 0B -  
18:      -  02 01 06 -  04 -  01 80 01 06 -  16 E8 0B -  
19:      -  02 01 06 -  04 -  01 80 01 06 -  10 EC 0B -  
1A:      -  02 01 06 -  04 -  01 80 01 06 -  16 E8 0F -  
1B:      -  02 01 06 -  01 -  01 80 01 06 -  13 E8 8A -  
1C:      -  01 01 04 -  02 -  01 80 01 04 -  13 FD 0A -  
1D:      -  02 03 03 -  01 -  80 80 02 04 -  0B FA 0A -  
1E:      0A -  01 06 -  02 -  01 -  01 06 -  16 EC 12 -  
1F:      02 -  -  -  -  -  B4 -  -  -  -  -  -  FE -  -  
20:      02 -  -  -  -  -  B5 -  80 -  -  -  -  FE -  -  
21:      02 -  -  -  -  -  B6 -  80 -  -  -  -  FA -  -  
22:      02 -  -  -  -  -  B7 -  80 -  06 -  -  FA -  -  
23:      02 -  -  -  -  -  B8 -  80 -  -  -  -  DA -  -  
24:      02 -  -  -  -  -  B9 -  -  -  -  -  -  DA -  -  
25:      01 01 -  -  -  -  81 -  -  -  -  -  -  FE -  -  
26:      0A -  -  -  -  -  -  -  80 -  -  -  -  FF -  -  
27:      0B -  -  -  -  -  -  -  80 -  -  -  -  05 -  -  
28:      0C -  -  -  -  -  -  -  -  -  -  -  -  92 -  -  
29:      04 -  -  -  -  -  80 -  -  -  -  -  -  FE -  -  
2A:      05 -  -  -  -  -  -  -  -  -  -  -  -  FF -  -  
2B:      06 -  -  -  -  -  -  -  -  -  -  -  -  FF -  -  
2C:      07 -  -  -  -  -  80 -  -  -  -  -  -  FF -  -  
2D:      08 -  -  -  -  -  80 -  -  -  -  -  -  FF -  -  
2E:      09 -  -  -  -  -  -  -  -  -  -  -  -  FF -  -  
2F:      0A -  -  -  -  -  -  -  -  -  -  -  -  FF -  -  
30:      0A 01 -  -  -  -  -  -  -  -  -  -  -  FF -  -  
31:      0A 02 -  -  -  -  -  -  -  -  -  -  -  FF -  -  
32:      0A -  -  -  -  -  B2 -  -  -  -  -  -  FF -  -  
33:      0A 01 -  -  -  -  -  -  -  -  -  -  63 ED -  -  
34:      0A 01 -  -  -  -  -  -  -  -  -  -  5A 01 -  -  
35:      0A -  -  -  -  -  -  -  -  -  -  -  -  FF -  -  
36:      0A 01 -  -  -  -  -  -  -  -  -  -  -  FF -  -  
37:      -  02 01 01 FF 02 -  80 -  01 01 FF 04 FF 1C -  
38:      -  01 03 04 -  02 -  80 -  03 04 -  04 FF 1C -  
39:      -  01 01 08 08 02 -  80 -  01 08 08 11 FF 1C -  
3A:      07 -  -  -  -  -  80 -  -  -  -  -  -  FF -  -  
3B:      09 -  -  -  -  -  80 -  -  -  -  -  -  FF -  -  
3C:      -  01 01 06 -  -  -  80 -  01 06 -  -  FA -  -  
3D:      02 -  -  -  -  -  B7 -  -  -  -  -  -  FE -  -  
3E:      02 -  -  -  -  -  B7 -  -  -  -  -  -  FE -  -  
3F:      -  01 01 0C -  -  -  01 -  01 08 -  -  EC 04 -  
40:      -  01 01 0C -  02 -  01 -  01 08 -  -  FC 16 -  
41:      09 -  -  -  -  -  -  -  -  -  -  -  -  01 -  -  
42:      -  01 01 02 -  14 -  01 -  01 03 -  04 ED 1A -  
43:      -  01 01 02 -  1C -  80 80 01 03 -  16 -  0C -  
44:      02 -  -  -  -  -  C0 -  -  -  -  -  -  80 -  -  
45:      -  02 01 08 -  -  -  01 -  01 08 -  -  E8 04 -  
46:      -  01 02 04 -  -  -  80 -  01 06 01 -  FA 04 -  
47:      -  02 02 04 -  -  -  80 -  01 06 01 -  FF 04 -  
48:      -  -  01 06 01 -  -  -  80 02 04 -  -  FC 04 -  
49:      -  01 01 0C -  -  -  01 80 01 08 -  -  E8 04 -  
4A:      0A -  01 04 -  01 -  01 -  01 04 -  13 E8 12 -  
4B:      07 -  -  -  -  -  80 -  -  -  -  -  -  FF -  -  
4C:      4B 01 -  -  -  -  -  -  -  -  -  -  -  FF -  -  
4D:      05 -  -  -  -  -  80 -  -  -  -  -  -  FF -  -  
4E:      4D -  -  -  -  -  B2 -  -  -  -  -  -  FF -  -  
4F:      4E 01 -  -  -  -  -  -  -  -  -  -  5A 01 -  -  
50:      4E 01 -  -  -  -  -  -  -  -  -  -  -  FF -  -  
51:      50 01 -  -  -  -  -  -  -  -  -  -  -  FF -  -  
52:      51 01 -  -  -  -  -  -  -  -  -  -  -  FF -  -  
53:      52 02 -  -  -  -  -  -  -  -  -  -  -  FF -  -  
54:      53 01 -  -  -  -  -  -  -  -  -  -  -  FF -  -  
55:      50 01 -  -  -  -  -  -  -  -  -  -  -  C8 -  -  
56:      -  01 01 01 FF 02 -  -  80 01 01 FF 04 FF 1A -  
57:      -  01 02 06 -  02 -  -  80 02 06 -  04 FF 1A -  
58:      -  02 01 08 08 02 -  80 -  01 08 08 0A C8 1A -  
59:      -  02 01 0C 08 02 -  80 -  01 0C 08 14 -  1A -  
5A:      -  02 03 06 -  -  -  -  80 01 0A -  -  C8 04 -  
5B:      09 -  -  -  -  -  -  -  -  -  -  -  -  FF -  -  
5C:      -  01 01 06 06 -  -  80 -  01 06 06 -  03 -  -  
5D:      07 -  -  -  -  -  80 -  -  -  -  -  -  FF -  -  
5E:      09 -  -  -  -  -  80 -  -  -  -  -  -  FF -  -  
5F:      -  -  01 06 -  -  -  80 -  01 06 01 -  CA 04 -  
60:      02 -  -  -  -  -  B7 -  -  -  -  -  -  CE -  -  
61:      02 -  -  -  -  -  B7 -  -  -  -  -  -  CA -  -  
62:      -  01 01 0C -  -  -  -  -  01 08 -  -  CC 04 -  
63:      -  -  01 06 -  0C -  01 -  01 06 -  12 08 1A -  
64:      09 -  -  -  -  -  -  -  -  -  -  -  -  01 -  -  
65:      -  01 01 02 -  1C -  01 -  01 03 -  06 FD 1A -  
66:      -  02 01 06 01 02 -  80 -  01 04 01 18 FA 0A -  
67:      -  -  -  -  -  -  -  -  -  -  -  -  -  -  -  -  
68:      -  -  -  -  -  -  -  -  -  -  -  -  -  -  -  -  
69:      -  -  -  -  -  -  -  -  -  -  -  -  -  -  -  -  
6A:      -  -  -  -  -  -  -  -  -  -  -  -  -  -  -  -  
6B:      -  -  -  -  -  -  -  -  -  -  -  -  -  -  -  -  
6C:      -  -  -  -  -  -  -  -  -  -  -  -  -  -  -  -  
6D:      -  -  -  -  -  -  -  -  -  -  -  -  -  -  -  -  
6E:      -  -  -  -  -  -  -  -  -  -  -  -  -  -  -  -  
6F:      -  -  -  -  -  -  -  -  -  -  -  -  -  -  -  -  
70:      -  -  -  -  -  -  -  -  -  -  -  -  -  -  -  -  
71:      -  -  -  -  -  -  -  -  -  -  -  -  -  -  -  -  
72:      -  -  -  -  -  -  -  -  -  -  -  -  -  -  -  -  
73:      -  -  -  -  -  -  -  -  -  -  -  -  -  -  -  -  
74:      -  -  -  -  -  -  -  -  -  -  -  -  -  -  -  -  
75:      -  -  -  -  -  -  -  -  -  -  -  -  -  -  -  -  
76:      -  -  -  -  -  -  -  -  -  -  -  -  -  -  -  -  
77:      -  -  -  -  -  -  -  -  -  -  -  -  -  -  -  -  
78:      -  -  -  -  -  -  -  -  -  -  -  -  -  -  -  -  
79:      -  -  -  -  -  -  -  -  -  -  -  -  -  -  -  -  
7A:      -  -  -  -  -  -  -  -  -  -  -  -  -  -  -  -  
7B:      -  -  -  -  -  -  -  -  -  -  -  -  -  -  -  -  
7C:      -  -  -  -  -  -  -  -  -  -  -  -  -  -  -  -  
7D:      -  -  -  -  -  -  -  -  -  -  -  -  -  -  -  -  
7E:      -  -  -  -  -  -  -  -  -  -  -  -  -  -  -  -  
7F:      -  -  -  -  -  -  -  -  -  -  -  -  -  -  -  -  
